filesystem:             bash 
acl:                    attr glibc pkg-config 
attr:                   glibc pkg-config 
autoconf:               bash perl 
autoconf-archive:        
automake:               autoconf bash perl 
bash:                   glibc ncurses pkg-config readline 
bc:                     flex glibc ncurses readline 
binutils:               flex gcc glibc zlib 
bison:                  bash glibc 
bootloader:              
bzip2:                  bash glibc pkg-config 
check:                  gawk glibc pkg-config 
cmake:                  bash coreutils gcc glibc ncurses openssl 
coreutils:              acl attr glibc gmp libcap openssl 
curl:                   bash glibc openssl pkg-config zlib zstd 
dash:                   glibc 
dbus:                   expat glibc pkg-config systemd 
dejagnu:                bash 
diffutils:              glibc 
dosfstools:             glibc 
e2fsprogs:              bash glibc pkg-config util-linux 
ed:                     bash glibc 
elfutils:               bash bzip2 gcc glibc pkg-config xz zlib zstd 
expat:                  glibc pkg-config 
expect:                 bash glibc tcl 
file:                   bzip2 glibc pkg-config xz zlib 
findutils:              glibc 
flex:                   glibc 
gawk:                   bash glibc gmp mpfr readline 
gcc:                    bash glibc gmp libmpc mpfr zlib zstd 
gdbm:                   glibc ncurses readline 
gettext:                acl bash gcc glibc libxml2 
git:                    autoconf bash curl expat glibc openssl pcre2 perl python zlib 
glib2:                  bash coreutils elfutils glibc libffi pcre2 pkg-config util-linux zlib 
glibc:                  bash perl 
gmp:                    gcc glibc pkg-config 
gperf:                  gcc glibc 
grep:                   bash glibc pcre2 
groff:                  autoconf bash coreutils gcc glibc perl perl-file-homedir 
gzip:                   bash glibc 
help2man:               autoconf glibc perl perl-locale-gettext 
iana-etc:                
inetutils:              glibc libxcrypt ncurses readline 
intltool:               bash perl 
iproute2:               coreutils elfutils glibc libcap libtirpc 
kbd:                    bash glibc 
kmod:                   glibc openssl pkg-config xz zlib zstd 
less:                   glibc ncurses pcre2 
libarchive:             acl bzip2 expat glibc openssl pkg-config xz zlib zstd 
libcap:                 glibc pkg-config 
libffi:                 glibc pkg-config 
libgcrypt:              bash glibc libgpg-error pkg-config 
libgpg-error:           bash glibc pkg-config 
libmpc:                 glibc gmp mpfr 
libnsl:                 glibc libtirpc pkg-config 
libpipeline:            glibc pkg-config 
libtirpc:               glibc pkg-config 
libtasn1:               glibc pkg-config 
libtool:                bash coreutils glibc 
libuv:                  glibc pkg-config 
libxcrypt:              glibc pkg-config 
libxml2:                bash glibc ncurses pkg-config readline xz zlib 
linux:                   
linux-api-headers:       
linux-firmware:          
lua:                    glibc pkg-config readline 
lzlib:                  glibc 
lzip:                   gcc glibc 
lziprecover:            gcc glibc 
m4:                     glibc 
make:                   glibc 
make-ca:                bash 
man-db:                 bash gdbm glibc libpipeline zlib 
man-pages:               
mpdecimal:              gcc glibc 
mpfr:                   glibc gmp pkg-config 
ncurses:                bash gcc glibc pkg-config 
net-tools:              glibc 
openssl:                coreutils glibc perl pkg-config 
p11-kit:                bash glibc libffi libtasn1 pkg-config systemd 
patch:                  attr glibc 
pcre:                   bash bzip2 gcc glibc pkg-config readline zlib 
pcre2:                  bash bzip2 glibc pkg-config readline zlib 
perl:                   autoconf gdbm glibc libxcrypt 
perl-file-homedir:      autoconf perl perl-file-which 
perl-file-which:        perl 
perl-libintl:           autoconf coreutils glibc perl 
perl-locale-gettext:    glibc perl 
perl-xml-parser:        expat glibc perl 
pkg-config:             glib2 glibc 
plzip:                  gcc glibc lzlib 
popt:                   glibc pkg-config 
procps-ng:              glibc ncurses pkg-config systemd 
psmisc:                 glibc ncurses 
python:                 bash bzip2 coreutils expat gdbm glibc libffi libtirpc libxcrypt mpdecimal ncurses openssl pkg-config readline sqlite util-linux xz zlib 
python-appdirs:          
python-chardet:         python 
python-idna:             
python-urllib3:          
python-requests:         
python-pyparsing:        
python-packaging:        
python-pep517:           
python-wheel:           python 
python-tomli:            
python-tomli-w:          
python-build:           python 
python-installer:        
python-docutils:        python 
python-flit:            python 
python-pip:             python 
python-typing_extensions: 
python-setuptools-scm:   
python-more-itertools:   
python-jaraco.functools: 
python-jaraco.context:   
python-autocommand:      
python-cython:          glibc python 
python-pydantic:        glibc 
python-toml:             
python-inflect:          
python-jaraco.text:      
python-ordered-set:      
python-calver:           
python-trove-classifiers: 
python-validate-pyproject:python 
python-setuptools:       
python-markupsafe:      glibc 
python-jinja:            
meson:                  bash python 
ninja:                  gcc glibc 
readline:               glibc ncurses pkg-config 
rpi-eeprom:             bash coreutils 
rpm:                    acl bash bzip2 dbus elfutils file glibc libarchive libcap libgcrypt lua perl pkg-config popt readline sqlite xz zlib zstd 
rsync:                  acl attr coreutils glibc openssl popt zlib zstd 
sed:                    acl glibc 
shadow:                 acl attr glibc libxcrypt 
sqlite:                 glibc ncurses pkg-config readline zlib 
sudo:                   glibc libxcrypt openssl zlib 
systemd:                acl bash bzip2 coreutils curl glibc kmod libcap libgcrypt libgpg-error libxcrypt openssl p11-kit pkg-config util-linux xz zlib zstd 
tar:                    acl glibc 
tarlz:                  gcc glibc lzlib 
tcl:                    bash glibc pkg-config zlib 
tcsh:                   glibc libxcrypt ncurses 
texinfo:                autoconf bash glibc ncurses perl perl-libintl 
tzdata:                 bash glibc 
unzip:                  bash bzip2 glibc 
userland:               bash glibc 
util-linux:             file glibc libxcrypt ncurses pkg-config readline systemd zlib 
vim:                    acl bash coreutils gawk glibc ncurses perl python tcsh 
which:                  glibc 
xz:                     bash glibc pkg-config 
zlib:                   glibc pkg-config 
zstd:                   bash gcc glibc pkg-config 
#	bash-completion:     pkg-config
